…
d2m1

## # A tibble: 140 × 5
##    p_grid prior pattern posterior obs                
##     <dbl> <dbl>   <int>     <dbl> <chr>              
##  1 0          1       1 0         W                  
##  2 0          1       2 0         W, W               
##  3 0          1       3 0         W, W, W,           
##  4 0          1       4 0         W, W, W, L         
##  5 0          1       5 0         W, W, W, L, W      
##  6 0          1       6 0         W, W, W, L, W, W   
##  7 0          1       7 0         W, W, W, L, W, W, W
##  8 0.0526     1       1 0.00526   W                  
##  9 0.0526     1       2 0.000405  W, W               
## 10 0.0526     1       3 0.0000277 W, W, W,           
## # … with 130 more rows
…
